(module 3mm_tab (layer F.Cu) (tedit 607400EE)
  (fp_text reference 3mm_tab (at 0 -2.5) (layer F.SilkS) hide
    (effects (font (size 1 1) (thickness 0.2)))
  )
  (fp_text value VAL** (at 0 2.5) (layer F.SilkS) hide
    (effects (font (size 1 1) (thickness 0.2)))
  )
  (fp_circle (center -2.5 0) (end -2.5 -0.06) (layer Dwgs.User) (width 0.05))
  (fp_circle (center 2.5 0) (end 2.56 0) (layer Dwgs.User) (width 0.05))
  (fp_arc (start -2.5 0) (end -2.5 1.5) (angle -180) (layer F.SilkS) (width 0.12))
  (fp_arc (start 2.5 0) (end 2.5 -1.5) (angle -180) (layer F.SilkS) (width 0.12))
  (pad "" np_thru_hole circle (at 0 -0.75) (size 0.5 0.5) (drill 0.5) (layers *.Cu *.Mask))
  (pad "" np_thru_hole circle (at 0 0.75) (size 0.5 0.5) (drill 0.5) (layers *.Cu *.Mask))
  (pad "" np_thru_hole circle (at 0.75 -0.75) (size 0.5 0.5) (drill 0.5) (layers *.Cu *.Mask))
  (pad "" np_thru_hole circle (at -0.75 -0.75) (size 0.5 0.5) (drill 0.5) (layers *.Cu *.Mask))
  (pad "" np_thru_hole circle (at -0.75 0.75) (size 0.5 0.5) (drill 0.5) (layers *.Cu *.Mask))
  (pad "" np_thru_hole circle (at 0.75 0.75) (size 0.5 0.5) (drill 0.5) (layers *.Cu *.Mask))
)
